module github.com/appleboy/gorush

go 1.15

require (
	github.com/apex/gateway v1.1.2
	github.com/appleboy/gin-status-api v1.1.0
	github.com/appleboy/go-fcm v0.1.5
	github.com/appleboy/gofight/v2 v2.1.2
	github.com/asdine/storm/v3 v3.2.1
	github.com/buger/jsonparser v1.1.1
	github.com/dgraph-io/badger/v3 v3.2103.1
	github.com/gin-contrib/logger v0.2.0
	github.com/gin-gonic/gin v1.7.2
	github.com/go-redis/redis/v7 v7.4.0
	github.com/golang/protobuf v1.5.1
	github.com/mattn/go-isatty v0.0.12
	github.com/mitchellh/mapstructure v1.4.1
	github.com/msalihkarakasli/go-hms-push v0.0.0-20200616114002-91cd23dfeed4
	github.com/prometheus/client_golang v1.10.0
	github.com/rs/zerolog v1.23.0
	github.com/sideshow/apns2 v0.20.0
	github.com/sirupsen/logrus v1.8.1
	github.com/spf13/viper v1.7.1
	github.com/stretchr/testify v1.7.0
	github.com/syndtr/goleveldb v1.0.0
	github.com/thoas/stats v0.0.0-20190407194641-965cb2de1678
	github.com/tidwall/buntdb v1.2.0
	golang.org/x/crypto v0.0.0-20210322153248-0c34fe9e7dc2
	golang.org/x/net v0.0.0-20210405180319-a5a99cb37ef4
	golang.org/x/sync v0.0.0-20210220032951-036812b2e83c
	golang.org/x/sys v0.0.0-20210510120138-977fb7262007 // indirect
	google.golang.org/grpc v1.36.1
	google.golang.org/protobuf v1.26.0
)
